%YAML 1.1
%TAG !u! tag:unity3d.com,2011:
--- !u!29 &1
OcclusionCullingSettings:
  m_ObjectHideFlags: 0
  serializedVersion: 2
  m_OcclusionBakeSettings:
    smallestOccluder: 5
    smallestHole: 0.25
    backfaceThreshold: 100
  m_SceneGUID: 00000000000000000000000000000000
  m_OcclusionCullingData: {fileID: 0}
--- !u!104 &2
RenderSettings:
  m_ObjectHideFlags: 0
  serializedVersion: 8
  m_Fog: 0
  m_FogColor: {r: 0.5, g: 0.5, b: 0.5, a: 1}
  m_FogMode: 3
  m_FogDensity: 0.01
  m_LinearFogStart: 0
  m_LinearFogEnd: 300
  m_AmbientSkyColor: {r: 0.212, g: 0.227, b: 0.259, a: 1}
  m_AmbientEquatorColor: {r: 0.114, g: 0.125, b: 0.133, a: 1}
  m_AmbientGroundColor: {r: 0.047, g: 0.043, b: 0.035, a: 1}
  m_AmbientIntensity: 1
  m_AmbientMode: 0
  m_SubtractiveShadowColor: {r: 0.42, g: 0.478, b: 0.627, a: 1}
  m_SkyboxMaterial: {fileID: 10304, guid: 0000000000000000f000000000000000, type: 0}
  m_HaloStrength: 0.5
  m_FlareStrength: 1
  m_FlareFadeSpeed: 3
  m_HaloTexture: {fileID: 0}
  m_SpotCookie: {fileID: 10001, guid: 0000000000000000e000000000000000, type: 0}
  m_DefaultReflectionMode: 0
  m_DefaultReflectionResolution: 128
  m_ReflectionBounces: 1
  m_ReflectionIntensity: 1
  m_CustomReflection: {fileID: 0}
  m_Sun: {fileID: 0}
  m_IndirectSpecularColor: {r: 0, g: 0, b: 0, a: 1}
--- !u!157 &3
LightmapSettings:
  m_ObjectHideFlags: 0
  serializedVersion: 11
  m_GIWorkflowMode: 1
  m_GISettings:
    serializedVersion: 2
    m_BounceScale: 1
    m_IndirectOutputScale: 1
    m_AlbedoBoost: 1
    m_TemporalCoherenceThreshold: 1
    m_EnvironmentLightingMode: 0
    m_EnableBakedLightmaps: 1
    m_EnableRealtimeLightmaps: 1
  m_LightmapEditorSettings:
    serializedVersion: 9
    m_Resolution: 2
    m_BakeResolution: 40
    m_TextureWidth: 1024
    m_TextureHeight: 1024
    m_AO: 0
    m_AOMaxDistance: 1
    m_CompAOExponent: 1
    m_CompAOExponentDirect: 0
    m_Padding: 2
    m_LightmapParameters: {fileID: 0}
    m_LightmapsBakeMode: 1
    m_TextureCompression: 1
    m_FinalGather: 0
    m_FinalGatherFiltering: 1
    m_FinalGatherRayCount: 256
    m_ReflectionCompression: 2
    m_MixedBakeMode: 1
    m_BakeBackend: 0
    m_PVRSampling: 1
    m_PVRDirectSampleCount: 32
    m_PVRSampleCount: 500
    m_PVRBounces: 2
    m_PVRFiltering: 0
    m_PVRFilteringMode: 1
    m_PVRCulling: 1
    m_PVRFilteringGaussRadiusDirect: 1
    m_PVRFilteringGaussRadiusIndirect: 5
    m_PVRFilteringGaussRadiusAO: 2
    m_PVRFilteringAtrousColorSigma: 1
    m_PVRFilteringAtrousNormalSigma: 1
    m_PVRFilteringAtrousPositionSigma: 1
  m_LightingDataAsset: {fileID: 0}
  m_UseShadowmask: 0
--- !u!196 &4
NavMeshSettings:
  serializedVersion: 2
  m_ObjectHideFlags: 0
  m_BuildSettings:
    serializedVersion: 2
    agentTypeID: 0
    agentRadius: 0.5
    agentHeight: 2
    agentSlope: 45
    agentClimb: 0.4
    ledgeDropHeight: 0
    maxJumpAcrossDistance: 0
    minRegionArea: 2
    manualCellSize: 0
    cellSize: 0.16666667
    manualTileSize: 0
    tileSize: 256
    accuratePlacement: 0
  m_NavMeshData: {fileID: 0}
--- !u!1 &98095112
GameObject:
  m_ObjectHideFlags: 0
  m_PrefabParentObject: {fileID: 0}
  m_PrefabInternal: {fileID: 0}
  serializedVersion: 5
  m_Component:
  - component: {fileID: 98095113}
  - component: {fileID: 98095115}
  - component: {fileID: 98095114}
  m_Layer: 5
  m_Name: Background
  m_TagString: Untagged
  m_Icon: {fileID: 0}
  m_NavMeshLayer: 0
  m_StaticEditorFlags: 0
  m_IsActive: 1
--- !u!224 &98095113
RectTransform:
  m_ObjectHideFlags: 0
  m_PrefabParentObject: {fileID: 0}
  m_PrefabInternal: {fileID: 0}
  m_GameObject: {fileID: 98095112}
  m_LocalRotation: {x: 0, y: 0, z: 0, w: 1}
  m_LocalPosition: {x: 0, y: 0, z: 0}
  m_LocalScale: {x: 1, y: 1, z: 1}
  m_Children: []
  m_Father: {fileID: 1772130836}
  m_RootOrder: 0
  m_LocalEulerAnglesHint: {x: 0, y: 0, z: 0}
  m_AnchorMin: {x: 0, y: 0}
  m_AnchorMax: {x: 1, y: 1}
  m_AnchoredPosition: {x: 0, y: 0}
  m_SizeDelta: {x: 0, y: 0}
  m_Pivot: {x: 0.5, y: 0.5}
--- !u!114 &98095114
MonoBehaviour:
  m_ObjectHideFlags: 0
  m_PrefabParentObject: {fileID: 0}
  m_PrefabInternal: {fileID: 0}
  m_GameObject: {fileID: 98095112}
  m_Enabled: 1
  m_EditorHideFlags: 0
  m_Script: {fileID: -765806418, guid: f70555f144d8491a825f0804e09c671c, type: 3}
  m_Name: 
  m_EditorClassIdentifier: 
  m_Material: {fileID: 0}
  m_Color: {r: 0.16470589, g: 0.16470589, b: 0.16470589, a: 1}
  m_RaycastTarget: 1
  m_OnCullStateChanged:
    m_PersistentCalls:
      m_Calls: []
    m_TypeName: UnityEngine.UI.MaskableGraphic+CullStateChangedEvent, UnityEngine.UI,
      Version=1.0.0.0, Culture=neutral, PublicKeyToken=null
  m_Sprite: {fileID: 0}
  m_Type: 0
  m_PreserveAspect: 0
  m_FillCenter: 1
  m_FillMethod: 4
  m_FillAmount: 1
  m_FillClockwise: 1
  m_FillOrigin: 0
--- !u!222 &98095115
CanvasRenderer:
  m_ObjectHideFlags: 0
  m_PrefabParentObject: {fileID: 0}
  m_PrefabInternal: {fileID: 0}
  m_GameObject: {fileID: 98095112}
--- !u!1001 &359779007
Prefab:
  m_ObjectHideFlags: 0
  serializedVersion: 2
  m_Modification:
    m_TransformParent: {fileID: 0}
    m_Modifications:
    - target: {fileID: 4944834096443888, guid: e1aa3e135ac5ebf4596926c6bfeec4f1, type: 2}
      propertyPath: m_LocalPosition.x
      value: -9.599548
      objectReference: {fileID: 0}
    - target: {fileID: 4944834096443888, guid: e1aa3e135ac5ebf4596926c6bfeec4f1, type: 2}
      propertyPath: m_LocalPosition.y
      value: -59.99225
      objectReference: {fileID: 0}
    - target: {fileID: 4944834096443888, guid: e1aa3e135ac5ebf4596926c6bfeec4f1, type: 2}
      propertyPath: m_LocalPosition.z
      value: 0
      objectReference: {fileID: 0}
    - target: {fileID: 4944834096443888, guid: e1aa3e135ac5ebf4596926c6bfeec4f1, type: 2}
      propertyPath: m_LocalRotation.x
      value: -0
      objectReference: {fileID: 0}
    - target: {fileID: 4944834096443888, guid: e1aa3e135ac5ebf4596926c6bfeec4f1, type: 2}
      propertyPath: m_LocalRotation.y
      value: -0
      objectReference: {fileID: 0}
    - target: {fileID: 4944834096443888, guid: e1aa3e135ac5ebf4596926c6bfeec4f1, type: 2}
      propertyPath: m_LocalRotation.z
      value: -0
      objectReference: {fileID: 0}
    - target: {fileID: 4944834096443888, guid: e1aa3e135ac5ebf4596926c6bfeec4f1, type: 2}
      propertyPath: m_LocalRotation.w
      value: 1
      objectReference: {fileID: 0}
    - target: {fileID: 4944834096443888, guid: e1aa3e135ac5ebf4596926c6bfeec4f1, type: 2}
      propertyPath: m_RootOrder
      value: 5
      objectReference: {fileID: 0}
    - target: {fileID: 114492666368134954, guid: e1aa3e135ac5ebf4596926c6bfeec4f1,
        type: 2}
      propertyPath: AutoStartInEditor
      value: 0
      objectReference: {fileID: 0}
    m_RemovedComponents: []
  m_ParentPrefab: {fileID: 100100000, guid: e1aa3e135ac5ebf4596926c6bfeec4f1, type: 2}
  m_IsPrefabParent: 0
--- !u!1 &386377265
GameObject:
  m_ObjectHideFlags: 0
  m_PrefabParentObject: {fileID: 0}
  m_PrefabInternal: {fileID: 0}
  serializedVersion: 5
  m_Component:
  - component: {fileID: 386377268}
  - component: {fileID: 386377267}
  - component: {fileID: 386377266}
  m_Layer: 0
  m_Name: EventSystem
  m_TagString: Untagged
  m_Icon: {fileID: 0}
  m_NavMeshLayer: 0
  m_StaticEditorFlags: 0
  m_IsActive: 1
--- !u!114 &386377266
MonoBehaviour:
  m_ObjectHideFlags: 0
  m_PrefabParentObject: {fileID: 0}
  m_PrefabInternal: {fileID: 0}
  m_GameObject: {fileID: 386377265}
  m_Enabled: 1
  m_EditorHideFlags: 0
  m_Script: {fileID: 1077351063, guid: f70555f144d8491a825f0804e09c671c, type: 3}
  m_Name: 
  m_EditorClassIdentifier: 
  m_HorizontalAxis: Horizontal
  m_VerticalAxis: Vertical
  m_SubmitButton: Submit
  m_CancelButton: Cancel
  m_InputActionsPerSecond: 10
  m_RepeatDelay: 0.5
  m_ForceModuleActive: 0
--- !u!114 &386377267
MonoBehaviour:
  m_ObjectHideFlags: 0
  m_PrefabParentObject: {fileID: 0}
  m_PrefabInternal: {fileID: 0}
  m_GameObject: {fileID: 386377265}
  m_Enabled: 1
  m_EditorHideFlags: 0
  m_Script: {fileID: -619905303, guid: f70555f144d8491a825f0804e09c671c, type: 3}
  m_Name: 
  m_EditorClassIdentifier: 
  m_FirstSelected: {fileID: 0}
  m_sendNavigationEvents: 1
  m_DragThreshold: 5
--- !u!4 &386377268
Transform:
  m_ObjectHideFlags: 0
  m_PrefabParentObject: {fileID: 0}
  m_PrefabInternal: {fileID: 0}
  m_GameObject: {fileID: 386377265}
  m_LocalRotation: {x: 0, y: 0, z: 0, w: 1}
  m_LocalPosition: {x: 0, y: 0, z: 0}
  m_LocalScale: {x: 1, y: 1, z: 1}
  m_Children: []
  m_Father: {fileID: 0}
  m_RootOrder: 3
  m_LocalEulerAnglesHint: {x: 0, y: 0, z: 0}
--- !u!1001 &388089080
Prefab:
  m_ObjectHideFlags: 0
  serializedVersion: 2
  m_Modification:
    m_TransformParent: {fileID: 0}
    m_Modifications:
    - target: {fileID: 4621496214201924, guid: 377b961bdc153854193d9d2ce0d03f25, type: 2}
      propertyPath: m_LocalPosition.x
      value: 448
      objectReference: {fileID: 0}
    - target: {fileID: 4621496214201924, guid: 377b961bdc153854193d9d2ce0d03f25, type: 2}
      propertyPath: m_LocalPosition.y
      value: 249.85
      objectReference: {fileID: 0}
    - target: {fileID: 4621496214201924, guid: 377b961bdc153854193d9d2ce0d03f25, type: 2}
      propertyPath: m_LocalPosition.z
      value: 0
      objectReference: {fileID: 0}
    - target: {fileID: 4621496214201924, guid: 377b961bdc153854193d9d2ce0d03f25, type: 2}
      propertyPath: m_LocalRotation.x
      value: 0
      objectReference: {fileID: 0}
    - target: {fileID: 4621496214201924, guid: 377b961bdc153854193d9d2ce0d03f25, type: 2}
      propertyPath: m_LocalRotation.y
      value: 0
      objectReference: {fileID: 0}
    - target: {fileID: 4621496214201924, guid: 377b961bdc153854193d9d2ce0d03f25, type: 2}
      propertyPath: m_LocalRotation.z
      value: 0
      objectReference: {fileID: 0}
    - target: {fileID: 4621496214201924, guid: 377b961bdc153854193d9d2ce0d03f25, type: 2}
      propertyPath: m_LocalRotation.w
      value: 1
      objectReference: {fileID: 0}
    - target: {fileID: 4621496214201924, guid: 377b961bdc153854193d9d2ce0d03f25, type: 2}
      propertyPath: m_RootOrder
      value: 6
      objectReference: {fileID: 0}
    m_RemovedComponents: []
  m_ParentPrefab: {fileID: 100100000, guid: 377b961bdc153854193d9d2ce0d03f25, type: 2}
  m_IsPrefabParent: 0
--- !u!1001 &405832784
Prefab:
  m_ObjectHideFlags: 0
  serializedVersion: 2
  m_Modification:
    m_TransformParent: {fileID: 1772130836}
    m_Modifications:
    - target: {fileID: 224044497828938540, guid: 441082734a3508c4a87fc17f3eca6623,
        type: 2}
      propertyPath: m_LocalPosition.x
      value: 0
      objectReference: {fileID: 0}
    - target: {fileID: 224044497828938540, guid: 441082734a3508c4a87fc17f3eca6623,
        type: 2}
      propertyPath: m_LocalPosition.y
      value: 0
      objectReference: {fileID: 0}
    - target: {fileID: 224044497828938540, guid: 441082734a3508c4a87fc17f3eca6623,
        type: 2}
      propertyPath: m_LocalPosition.z
      value: 0
      objectReference: {fileID: 0}
    - target: {fileID: 224044497828938540, guid: 441082734a3508c4a87fc17f3eca6623,
        type: 2}
      propertyPath: m_LocalRotation.x
      value: 0
      objectReference: {fileID: 0}
    - target: {fileID: 224044497828938540, guid: 441082734a3508c4a87fc17f3eca6623,
        type: 2}
      propertyPath: m_LocalRotation.y
      value: 0
      objectReference: {fileID: 0}
    - target: {fileID: 224044497828938540, guid: 441082734a3508c4a87fc17f3eca6623,
        type: 2}
      propertyPath: m_LocalRotation.z
      value: 0
      objectReference: {fileID: 0}
    - target: {fileID: 224044497828938540, guid: 441082734a3508c4a87fc17f3eca6623,
        type: 2}
      propertyPath: m_LocalRotation.w
      value: 1
      objectReference: {fileID: 0}
    - target: {fileID: 224044497828938540, guid: 441082734a3508c4a87fc17f3eca6623,
        type: 2}
      propertyPath: m_RootOrder
      value: 3
      objectReference: {fileID: 0}
    - target: {fileID: 224044497828938540, guid: 441082734a3508c4a87fc17f3eca6623,
        type: 2}
      propertyPath: m_AnchoredPosition.x
      value: -230
      objectReference: {fileID: 0}
    - target: {fileID: 224044497828938540, guid: 441082734a3508c4a87fc17f3eca6623,
        type: 2}
      propertyPath: m_AnchoredPosition.y
      value: 131
      objectReference: {fileID: 0}
    - target: {fileID: 224044497828938540, guid: 441082734a3508c4a87fc17f3eca6623,
        type: 2}
      propertyPath: m_SizeDelta.x
      value: 284
      objectReference: {fileID: 0}
    - target: {fileID: 224044497828938540, guid: 441082734a3508c4a87fc17f3eca6623,
        type: 2}
      propertyPath: m_SizeDelta.y
      value: 284.9
      objectReference: {fileID: 0}
    - target: {fileID: 224044497828938540, guid: 441082734a3508c4a87fc17f3eca6623,
        type: 2}
      propertyPath: m_AnchorMin.x
      value: 0.5
      objectReference: {fileID: 0}
    - target: {fileID: 224044497828938540, guid: 441082734a3508c4a87fc17f3eca6623,
        type: 2}
      propertyPath: m_AnchorMin.y
      value: 0.5
      objectReference: {fileID: 0}
    - target: {fileID: 224044497828938540, guid: 441082734a3508c4a87fc17f3eca6623,
        type: 2}
      propertyPath: m_AnchorMax.x
      value: 0.5
      objectReference: {fileID: 0}
    - target: {fileID: 224044497828938540, guid: 441082734a3508c4a87fc17f3eca6623,
        type: 2}
      propertyPath: m_AnchorMax.y
      value: 0.5
      objectReference: {fileID: 0}
    - target: {fileID: 224044497828938540, guid: 441082734a3508c4a87fc17f3eca6623,
        type: 2}
      propertyPath: m_Pivot.x
      value: 0.5
      objectReference: {fileID: 0}
    - target: {fileID: 224044497828938540, guid: 441082734a3508c4a87fc17f3eca6623,
        type: 2}
      propertyPath: m_Pivot.y
      value: 0.5
      objectReference: {fileID: 0}
    - target: {fileID: 224438653606477708, guid: 441082734a3508c4a87fc17f3eca6623,
        type: 2}
      propertyPath: m_AnchorMin.y
      value: 1
      objectReference: {fileID: 0}
    - target: {fileID: 224438653606477708, guid: 441082734a3508c4a87fc17f3eca6623,
        type: 2}
      propertyPath: m_AnchorMax.y
      value: 1
      objectReference: {fileID: 0}
    - target: {fileID: 224438653606477708, guid: 441082734a3508c4a87fc17f3eca6623,
        type: 2}
      propertyPath: m_AnchoredPosition.x
      value: 124.5
      objectReference: {fileID: 0}
    - target: {fileID: 224438653606477708, guid: 441082734a3508c4a87fc17f3eca6623,
        type: 2}
      propertyPath: m_AnchoredPosition.y
      value: -23.45
      objectReference: {fileID: 0}
    - target: {fileID: 224163989569071766, guid: 441082734a3508c4a87fc17f3eca6623,
        type: 2}
      propertyPath: m_AnchorMin.y
      value: 1
      objectReference: {fileID: 0}
    - target: {fileID: 224163989569071766, guid: 441082734a3508c4a87fc17f3eca6623,
        type: 2}
      propertyPath: m_AnchorMax.y
      value: 1
      objectReference: {fileID: 0}
    - target: {fileID: 224163989569071766, guid: 441082734a3508c4a87fc17f3eca6623,
        type: 2}
      propertyPath: m_AnchoredPosition.x
      value: 141.5
      objectReference: {fileID: 0}
    - target: {fileID: 224163989569071766, guid: 441082734a3508c4a87fc17f3eca6623,
        type: 2}
      propertyPath: m_AnchoredPosition.y
      value: -57.9
      objectReference: {fileID: 0}
    - target: {fileID: 224713227085180764, guid: 441082734a3508c4a87fc17f3eca6623,
        type: 2}
      propertyPath: m_AnchorMin.y
      value: 1
      objectReference: {fileID: 0}
    - target: {fileID: 224713227085180764, guid: 441082734a3508c4a87fc17f3eca6623,
        type: 2}
      propertyPath: m_AnchorMax.y
      value: 1
      objectReference: {fileID: 0}
    - target: {fileID: 224713227085180764, guid: 441082734a3508c4a87fc17f3eca6623,
        type: 2}
      propertyPath: m_AnchoredPosition.x
      value: 143.5
      objectReference: {fileID: 0}
    - target: {fileID: 224713227085180764, guid: 441082734a3508c4a87fc17f3eca6623,
        type: 2}
      propertyPath: m_AnchoredPosition.y
      value: -132.9
      objectReference: {fileID: 0}
    - target: {fileID: 224975621506658988, guid: 441082734a3508c4a87fc17f3eca6623,
        type: 2}
      propertyPath: m_AnchorMin.y
      value: 1
      objectReference: {fileID: 0}
    - target: {fileID: 224975621506658988, guid: 441082734a3508c4a87fc17f3eca6623,
        type: 2}
      propertyPath: m_AnchorMax.y
      value: 1
      objectReference: {fileID: 0}
    - target: {fileID: 224975621506658988, guid: 441082734a3508c4a87fc17f3eca6623,
        type: 2}
      propertyPath: m_AnchoredPosition.x
      value: 143.5
      objectReference: {fileID: 0}
    - target: {fileID: 224975621506658988, guid: 441082734a3508c4a87fc17f3eca6623,
        type: 2}
      propertyPath: m_AnchoredPosition.y
      value: -218.4
      objectReference: {fileID: 0}
    m_RemovedComponents: []
  m_ParentPrefab: {fileID: 100100000, guid: 441082734a3508c4a87fc17f3eca6623, type: 2}
  m_IsPrefabParent: 0
--- !u!224 &405832785 stripped
RectTransform:
  m_PrefabParentObject: {fileID: 224044497828938540, guid: 441082734a3508c4a87fc17f3eca6623,
    type: 2}
  m_PrefabInternal: {fileID: 405832784}
--- !u!1 &567055848
GameObject:
  m_ObjectHideFlags: 0
  m_PrefabParentObject: {fileID: 0}
  m_PrefabInternal: {fileID: 0}
  serializedVersion: 5
  m_Component:
  - component: {fileID: 567055850}
  - component: {fileID: 567055849}
  m_Layer: 0
  m_Name: Directional Light
  m_TagString: Untagged
  m_Icon: {fileID: 0}
  m_NavMeshLayer: 0
  m_StaticEditorFlags: 0
  m_IsActive: 1
--- !u!108 &567055849
Light:
  m_ObjectHideFlags: 0
  m_PrefabParentObject: {fileID: 0}
  m_PrefabInternal: {fileID: 0}
  m_GameObject: {fileID: 567055848}
  m_Enabled: 1
  serializedVersion: 8
  m_Type: 1
  m_Color: {r: 1, g: 0.95686275, b: 0.8392157, a: 1}
  m_Intensity: 1
  m_Range: 10
  m_SpotAngle: 30
  m_CookieSize: 10
  m_Shadows:
    m_Type: 2
    m_Resolution: -1
    m_CustomResolution: -1
    m_Strength: 1
    m_Bias: 0.05
    m_NormalBias: 0.4
    m_NearPlane: 0.2
  m_Cookie: {fileID: 0}
  m_DrawHalo: 0
  m_Flare: {fileID: 0}
  m_RenderMode: 0
  m_CullingMask:
    serializedVersion: 2
    m_Bits: 4294967295
  m_Lightmapping: 4
  m_AreaSize: {x: 1, y: 1}
  m_BounceIntensity: 1
  m_ColorTemperature: 6570
  m_UseColorTemperature: 0
  m_ShadowRadius: 0
  m_ShadowAngle: 0
--- !u!4 &567055850
Transform:
  m_ObjectHideFlags: 0
  m_PrefabParentObject: {fileID: 0}
  m_PrefabInternal: {fileID: 0}
  m_GameObject: {fileID: 567055848}
  m_LocalRotation: {x: 0.40821788, y: -0.23456968, z: 0.10938163, w: 0.8754261}
  m_LocalPosition: {x: 0, y: 3, z: 0}
  m_LocalScale: {x: 1, y: 1, z: 1}
  m_Children: []
  m_Father: {fileID: 0}
  m_RootOrder: 1
  m_LocalEulerAnglesHint: {x: 50, y: -30, z: 0}
--- !u!1001 &732326003
Prefab:
  m_ObjectHideFlags: 0
  serializedVersion: 2
  m_Modification:
    m_TransformParent: {fileID: 1772130836}
    m_Modifications:
    - target: {fileID: 224122506576416896, guid: d5a8b5dda87d18a44b41021371c8f5af,
        type: 2}
      propertyPath: m_LocalPosition.x
      value: 0
      objectReference: {fileID: 0}
    - target: {fileID: 224122506576416896, guid: d5a8b5dda87d18a44b41021371c8f5af,
        type: 2}
      propertyPath: m_LocalPosition.y
      value: 0
      objectReference: {fileID: 0}
    - target: {fileID: 224122506576416896, guid: d5a8b5dda87d18a44b41021371c8f5af,
        type: 2}
      propertyPath: m_LocalPosition.z
      value: 0
      objectReference: {fileID: 0}
    - target: {fileID: 224122506576416896, guid: d5a8b5dda87d18a44b41021371c8f5af,
        type: 2}
      propertyPath: m_LocalRotation.x
      value: 0
      objectReference: {fileID: 0}
    - target: {fileID: 224122506576416896, guid: d5a8b5dda87d18a44b41021371c8f5af,
        type: 2}
      propertyPath: m_LocalRotation.y
      value: 0
      objectReference: {fileID: 0}
    - target: {fileID: 224122506576416896, guid: d5a8b5dda87d18a44b41021371c8f5af,
        type: 2}
      propertyPath: m_LocalRotation.z
      value: 0
      objectReference: {fileID: 0}
    - target: {fileID: 224122506576416896, guid: d5a8b5dda87d18a44b41021371c8f5af,
        type: 2}
      propertyPath: m_LocalRotation.w
      value: 1
      objectReference: {fileID: 0}
    - target: {fileID: 224122506576416896, guid: d5a8b5dda87d18a44b41021371c8f5af,
        type: 2}
      propertyPath: m_RootOrder
      value: 4
      objectReference: {fileID: 0}
    - target: {fileID: 224122506576416896, guid: d5a8b5dda87d18a44b41021371c8f5af,
        type: 2}
      propertyPath: m_AnchoredPosition.x
      value: 0
      objectReference: {fileID: 0}
    - target: {fileID: 224122506576416896, guid: d5a8b5dda87d18a44b41021371c8f5af,
        type: 2}
      propertyPath: m_AnchoredPosition.y
      value: 0
      objectReference: {fileID: 0}
    - target: {fileID: 224122506576416896, guid: d5a8b5dda87d18a44b41021371c8f5af,
        type: 2}
      propertyPath: m_SizeDelta.x
      value: 258.1
      objectReference: {fileID: 0}
    - target: {fileID: 224122506576416896, guid: d5a8b5dda87d18a44b41021371c8f5af,
        type: 2}
      propertyPath: m_SizeDelta.y
      value: 48.2
      objectReference: {fileID: 0}
    - target: {fileID: 224122506576416896, guid: d5a8b5dda87d18a44b41021371c8f5af,
        type: 2}
      propertyPath: m_AnchorMin.x
      value: 1
      objectReference: {fileID: 0}
    - target: {fileID: 224122506576416896, guid: d5a8b5dda87d18a44b41021371c8f5af,
        type: 2}
      propertyPath: m_AnchorMin.y
      value: 0
      objectReference: {fileID: 0}
    - target: {fileID: 224122506576416896, guid: d5a8b5dda87d18a44b41021371c8f5af,
        type: 2}
      propertyPath: m_AnchorMax.x
      value: 1
      objectReference: {fileID: 0}
    - target: {fileID: 224122506576416896, guid: d5a8b5dda87d18a44b41021371c8f5af,
        type: 2}
      propertyPath: m_AnchorMax.y
      value: 0
      objectReference: {fileID: 0}
    - target: {fileID: 224122506576416896, guid: d5a8b5dda87d18a44b41021371c8f5af,
        type: 2}
      propertyPath: m_Pivot.x
      value: 1
      objectReference: {fileID: 0}
    - target: {fileID: 224122506576416896, guid: d5a8b5dda87d18a44b41021371c8f5af,
        type: 2}
      propertyPath: m_Pivot.y
      value: 0
      objectReference: {fileID: 0}
    - target: {fileID: 224516722322080528, guid: d5a8b5dda87d18a44b41021371c8f5af,
        type: 2}
      propertyPath: m_AnchorMin.y
      value: 1
      objectReference: {fileID: 0}
    - target: {fileID: 224516722322080528, guid: d5a8b5dda87d18a44b41021371c8f5af,
        type: 2}
      propertyPath: m_AnchorMax.y
      value: 1
      objectReference: {fileID: 0}
    - target: {fileID: 224516722322080528, guid: d5a8b5dda87d18a44b41021371c8f5af,
        type: 2}
      propertyPath: m_AnchoredPosition.x
      value: 258.1
      objectReference: {fileID: 0}
    - target: {fileID: 224516722322080528, guid: d5a8b5dda87d18a44b41021371c8f5af,
        type: 2}
      propertyPath: m_AnchoredPosition.y
      value: -48.2
      objectReference: {fileID: 0}
    - target: {fileID: 224516722322080528, guid: d5a8b5dda87d18a44b41021371c8f5af,
        type: 2}
      propertyPath: m_SizeDelta.x
      value: 258.1
      objectReference: {fileID: 0}
    m_RemovedComponents: []
  m_ParentPrefab: {fileID: 100100000, guid: d5a8b5dda87d18a44b41021371c8f5af, type: 2}
  m_IsPrefabParent: 0
--- !u!224 &732326004 stripped
RectTransform:
  m_PrefabParentObject: {fileID: 224122506576416896, guid: d5a8b5dda87d18a44b41021371c8f5af,
    type: 2}
  m_PrefabInternal: {fileID: 732326003}
--- !u!1001 &970806194
Prefab:
  m_ObjectHideFlags: 0
  serializedVersion: 2
  m_Modification:
    m_TransformParent: {fileID: 0}
    m_Modifications:
    - target: {fileID: 4352480530871830, guid: 580e37fb274e9e947b21fe30c4e3bc93, type: 2}
      propertyPath: m_LocalPosition.x
      value: 0
      objectReference: {fileID: 0}
    - target: {fileID: 4352480530871830, guid: 580e37fb274e9e947b21fe30c4e3bc93, type: 2}
      propertyPath: m_LocalPosition.y
      value: 0
      objectReference: {fileID: 0}
    - target: {fileID: 4352480530871830, guid: 580e37fb274e9e947b21fe30c4e3bc93, type: 2}
      propertyPath: m_LocalPosition.z
      value: 0
      objectReference: {fileID: 0}
    - target: {fileID: 4352480530871830, guid: 580e37fb274e9e947b21fe30c4e3bc93, type: 2}
      propertyPath: m_LocalRotation.x
      value: 0
      objectReference: {fileID: 0}
    - target: {fileID: 4352480530871830, guid: 580e37fb274e9e947b21fe30c4e3bc93, type: 2}
      propertyPath: m_LocalRotation.y
      value: 0
      objectReference: {fileID: 0}
    - target: {fileID: 4352480530871830, guid: 580e37fb274e9e947b21fe30c4e3bc93, type: 2}
      propertyPath: m_LocalRotation.z
      value: 0
      objectReference: {fileID: 0}
    - target: {fileID: 4352480530871830, guid: 580e37fb274e9e947b21fe30c4e3bc93, type: 2}
      propertyPath: m_LocalRotation.w
      value: 1
      objectReference: {fileID: 0}
    - target: {fileID: 4352480530871830, guid: 580e37fb274e9e947b21fe30c4e3bc93, type: 2}
      propertyPath: m_RootOrder
      value: 4
      objectReference: {fileID: 0}
    m_RemovedComponents: []
  m_ParentPrefab: {fileID: 100100000, guid: 580e37fb274e9e947b21fe30c4e3bc93, type: 2}
  m_IsPrefabParent: 0
--- !u!114 &970806195 stripped
MonoBehaviour:
  m_PrefabParentObject: {fileID: 114638258291320470, guid: 580e37fb274e9e947b21fe30c4e3bc93,
    type: 2}
  m_PrefabInternal: {fileID: 970806194}
  m_Script: {fileID: 11500000, guid: 13df84eab619a384498b917fbdc7b87f, type: 3}
--- !u!1001 &1146197960
Prefab:
  m_ObjectHideFlags: 0
  serializedVersion: 2
  m_Modification:
    m_TransformParent: {fileID: 1772130836}
    m_Modifications:
    - target: {fileID: 224367082150458352, guid: 87304987c3b0f3540b2523a9358ff2a7,
        type: 2}
      propertyPath: m_LocalPosition.x
      value: 0
      objectReference: {fileID: 0}
    - target: {fileID: 224367082150458352, guid: 87304987c3b0f3540b2523a9358ff2a7,
        type: 2}
      propertyPath: m_LocalPosition.y
      value: 0
      objectReference: {fileID: 0}
    - target: {fileID: 224367082150458352, guid: 87304987c3b0f3540b2523a9358ff2a7,
        type: 2}
      propertyPath: m_LocalPosition.z
      value: 0
      objectReference: {fileID: 0}
    - target: {fileID: 224367082150458352, guid: 87304987c3b0f3540b2523a9358ff2a7,
        type: 2}
      propertyPath: m_LocalRotation.x
      value: 0
      objectReference: {fileID: 0}
    - target: {fileID: 224367082150458352, guid: 87304987c3b0f3540b2523a9358ff2a7,
        type: 2}
      propertyPath: m_LocalRotation.y
      value: 0
      objectReference: {fileID: 0}
    - target: {fileID: 224367082150458352, guid: 87304987c3b0f3540b2523a9358ff2a7,
        type: 2}
      propertyPath: m_LocalRotation.z
      value: 0
      objectReference: {fileID: 0}
    - target: {fileID: 224367082150458352, guid: 87304987c3b0f3540b2523a9358ff2a7,
        type: 2}
      propertyPath: m_LocalRotation.w
      value: 1
      objectReference: {fileID: 0}
    - target: {fileID: 224367082150458352, guid: 87304987c3b0f3540b2523a9358ff2a7,
        type: 2}
      propertyPath: m_RootOrder
      value: 5
      objectReference: {fileID: 0}
    - target: {fileID: 224367082150458352, guid: 87304987c3b0f3540b2523a9358ff2a7,
        type: 2}
      propertyPath: m_AnchoredPosition.x
      value: -74.5
      objectReference: {fileID: 0}
    - target: {fileID: 224367082150458352, guid: 87304987c3b0f3540b2523a9358ff2a7,
        type: 2}
      propertyPath: m_AnchoredPosition.y
      value: -14.5
      objectReference: {fileID: 0}
    - target: {fileID: 224367082150458352, guid: 87304987c3b0f3540b2523a9358ff2a7,
        type: 2}
      propertyPath: m_SizeDelta.x
      value: 149
      objectReference: {fileID: 0}
    - target: {fileID: 224367082150458352, guid: 87304987c3b0f3540b2523a9358ff2a7,
        type: 2}
      propertyPath: m_SizeDelta.y
      value: 29
      objectReference: {fileID: 0}
    - target: {fileID: 224367082150458352, guid: 87304987c3b0f3540b2523a9358ff2a7,
        type: 2}
      propertyPath: m_AnchorMin.x
      value: 1
      objectReference: {fileID: 0}
    - target: {fileID: 224367082150458352, guid: 87304987c3b0f3540b2523a9358ff2a7,
        type: 2}
      propertyPath: m_AnchorMin.y
      value: 1
      objectReference: {fileID: 0}
    - target: {fileID: 224367082150458352, guid: 87304987c3b0f3540b2523a9358ff2a7,
        type: 2}
      propertyPath: m_AnchorMax.x
      value: 1
      objectReference: {fileID: 0}
    - target: {fileID: 224367082150458352, guid: 87304987c3b0f3540b2523a9358ff2a7,
        type: 2}
      propertyPath: m_AnchorMax.y
      value: 1
      objectReference: {fileID: 0}
    - target: {fileID: 224367082150458352, guid: 87304987c3b0f3540b2523a9358ff2a7,
        type: 2}
      propertyPath: m_Pivot.x
      value: 0.5
      objectReference: {fileID: 0}
    - target: {fileID: 224367082150458352, guid: 87304987c3b0f3540b2523a9358ff2a7,
        type: 2}
      propertyPath: m_Pivot.y
      value: 0.5
      objectReference: {fileID: 0}
    m_RemovedComponents: []
  m_ParentPrefab: {fileID: 100100000, guid: 87304987c3b0f3540b2523a9358ff2a7, type: 2}
  m_IsPrefabParent: 0
--- !u!224 &1146197961 stripped
RectTransform:
  m_PrefabParentObject: {fileID: 224367082150458352, guid: 87304987c3b0f3540b2523a9358ff2a7,
    type: 2}
  m_PrefabInternal: {fileID: 1146197960}
--- !u!1001 &1262248574
Prefab:
  m_ObjectHideFlags: 0
  serializedVersion: 2
  m_Modification:
    m_TransformParent: {fileID: 1772130836}
    m_Modifications:
    - target: {fileID: 224358128945270740, guid: a3dd1def731808043a561b0738461f06,
        type: 2}
      propertyPath: m_LocalPosition.x
      value: 0
      objectReference: {fileID: 0}
    - target: {fileID: 224358128945270740, guid: a3dd1def731808043a561b0738461f06,
        type: 2}
      propertyPath: m_LocalPosition.y
      value: 0
      objectReference: {fileID: 0}
    - target: {fileID: 224358128945270740, guid: a3dd1def731808043a561b0738461f06,
        type: 2}
      propertyPath: m_LocalPosition.z
      value: 0
      objectReference: {fileID: 0}
    - target: {fileID: 224358128945270740, guid: a3dd1def731808043a561b0738461f06,
        type: 2}
      propertyPath: m_LocalRotation.x
      value: -0
      objectReference: {fileID: 0}
    - target: {fileID: 224358128945270740, guid: a3dd1def731808043a561b0738461f06,
        type: 2}
      propertyPath: m_LocalRotation.y
      value: -0
      objectReference: {fileID: 0}
    - target: {fileID: 224358128945270740, guid: a3dd1def731808043a561b0738461f06,
        type: 2}
      propertyPath: m_LocalRotation.z
      value: -0
      objectReference: {fileID: 0}
    - target: {fileID: 224358128945270740, guid: a3dd1def731808043a561b0738461f06,
        type: 2}
      propertyPath: m_LocalRotation.w
      value: 1
      objectReference: {fileID: 0}
    - target: {fileID: 224358128945270740, guid: a3dd1def731808043a561b0738461f06,
        type: 2}
      propertyPath: m_RootOrder
      value: 2
      objectReference: {fileID: 0}
    - target: {fileID: 224358128945270740, guid: a3dd1def731808043a561b0738461f06,
        type: 2}
      propertyPath: m_AnchoredPosition.x
      value: 90
      objectReference: {fileID: 0}
    - target: {fileID: 224358128945270740, guid: a3dd1def731808043a561b0738461f06,
        type: 2}
      propertyPath: m_AnchoredPosition.y
      value: 68
      objectReference: {fileID: 0}
    - target: {fileID: 224358128945270740, guid: a3dd1def731808043a561b0738461f06,
        type: 2}
      propertyPath: m_SizeDelta.x
      value: 284
      objectReference: {fileID: 0}
    - target: {fileID: 224358128945270740, guid: a3dd1def731808043a561b0738461f06,
        type: 2}
      propertyPath: m_SizeDelta.y
      value: 410.9
      objectReference: {fileID: 0}
    - target: {fileID: 224358128945270740, guid: a3dd1def731808043a561b0738461f06,
        type: 2}
      propertyPath: m_AnchorMin.x
      value: 0.5
      objectReference: {fileID: 0}
    - target: {fileID: 224358128945270740, guid: a3dd1def731808043a561b0738461f06,
        type: 2}
      propertyPath: m_AnchorMin.y
      value: 0.5
      objectReference: {fileID: 0}
    - target: {fileID: 224358128945270740, guid: a3dd1def731808043a561b0738461f06,
        type: 2}
      propertyPath: m_AnchorMax.x
      value: 0.5
      objectReference: {fileID: 0}
    - target: {fileID: 224358128945270740, guid: a3dd1def731808043a561b0738461f06,
        type: 2}
      propertyPath: m_AnchorMax.y
      value: 0.5
      objectReference: {fileID: 0}
    - target: {fileID: 224358128945270740, guid: a3dd1def731808043a561b0738461f06,
        type: 2}
      propertyPath: m_Pivot.x
      value: 0.5
      objectReference: {fileID: 0}
    - target: {fileID: 224358128945270740, guid: a3dd1def731808043a561b0738461f06,
        type: 2}
      propertyPath: m_Pivot.y
      value: 0.5
      objectReference: {fileID: 0}
    - target: {fileID: 114338195037796092, guid: a3dd1def731808043a561b0738461f06,
        type: 2}
      propertyPath: SpawnerBehaviour
      value: 
      objectReference: {fileID: 970806195}
    - target: {fileID: 224475938241757540, guid: a3dd1def731808043a561b0738461f06,
        type: 2}
      propertyPath: m_AnchorMin.y
      value: 1
      objectReference: {fileID: 0}
    - target: {fileID: 224475938241757540, guid: a3dd1def731808043a561b0738461f06,
        type: 2}
      propertyPath: m_AnchorMax.y
      value: 1
      objectReference: {fileID: 0}
    - target: {fileID: 224475938241757540, guid: a3dd1def731808043a561b0738461f06,
        type: 2}
      propertyPath: m_AnchoredPosition.x
      value: 124.5
      objectReference: {fileID: 0}
    - target: {fileID: 224475938241757540, guid: a3dd1def731808043a561b0738461f06,
        type: 2}
      propertyPath: m_AnchoredPosition.y
      value: -23.45
      objectReference: {fileID: 0}
    - target: {fileID: 224756615752127456, guid: a3dd1def731808043a561b0738461f06,
        type: 2}
      propertyPath: m_AnchorMin.y
      value: 1
      objectReference: {fileID: 0}
    - target: {fileID: 224756615752127456, guid: a3dd1def731808043a561b0738461f06,
        type: 2}
      propertyPath: m_AnchorMax.y
      value: 1
      objectReference: {fileID: 0}
    - target: {fileID: 224756615752127456, guid: a3dd1def731808043a561b0738461f06,
        type: 2}
      propertyPath: m_AnchoredPosition.x
      value: 141.5
      objectReference: {fileID: 0}
    - target: {fileID: 224756615752127456, guid: a3dd1def731808043a561b0738461f06,
        type: 2}
      propertyPath: m_AnchoredPosition.y
      value: -57.9
      objectReference: {fileID: 0}
    - target: {fileID: 224596723437512438, guid: a3dd1def731808043a561b0738461f06,
        type: 2}
      propertyPath: m_AnchorMin.y
      value: 1
      objectReference: {fileID: 0}
    - target: {fileID: 224596723437512438, guid: a3dd1def731808043a561b0738461f06,
        type: 2}
      propertyPath: m_AnchorMax.y
      value: 1
      objectReference: {fileID: 0}
    - target: {fileID: 224596723437512438, guid: a3dd1def731808043a561b0738461f06,
        type: 2}
      propertyPath: m_AnchoredPosition.x
      value: 143.5
      objectReference: {fileID: 0}
    - target: {fileID: 224596723437512438, guid: a3dd1def731808043a561b0738461f06,
        type: 2}
      propertyPath: m_AnchoredPosition.y
      value: -136.15
      objectReference: {fileID: 0}
    - target: {fileID: 224264595062691068, guid: a3dd1def731808043a561b0738461f06,
        type: 2}
      propertyPath: m_AnchorMin.y
      value: 1
      objectReference: {fileID: 0}
    - target: {fileID: 224264595062691068, guid: a3dd1def731808043a561b0738461f06,
        type: 2}
      propertyPath: m_AnchorMax.y
      value: 1
      objectReference: {fileID: 0}
    - target: {fileID: 224264595062691068, guid: a3dd1def731808043a561b0738461f06,
        type: 2}
      propertyPath: m_AnchoredPosition.x
      value: 143.5
      objectReference: {fileID: 0}
    - target: {fileID: 224264595062691068, guid: a3dd1def731808043a561b0738461f06,
        type: 2}
      propertyPath: m_AnchoredPosition.y
      value: -255.65
      objectReference: {fileID: 0}
    - target: {fileID: 224367472569105300, guid: a3dd1def731808043a561b0738461f06,
        type: 2}
      propertyPath: m_AnchorMin.y
      value: 1
      objectReference: {fileID: 0}
    - target: {fileID: 224367472569105300, guid: a3dd1def731808043a561b0738461f06,
        type: 2}
      propertyPath: m_AnchorMax.y
      value: 1
      objectReference: {fileID: 0}
    - target: {fileID: 224367472569105300, guid: a3dd1def731808043a561b0738461f06,
        type: 2}
      propertyPath: m_AnchoredPosition.x
      value: 143.5
      objectReference: {fileID: 0}
    - target: {fileID: 224367472569105300, guid: a3dd1def731808043a561b0738461f06,
        type: 2}
      propertyPath: m_AnchoredPosition.y
      value: -344.4
      objectReference: {fileID: 0}
    - target: {fileID: 114633375708050302, guid: a3dd1def731808043a561b0738461f06,
        type: 2}
      propertyPath: m_Text
      value: ./GameServer.exe
      objectReference: {fileID: 0}
    m_RemovedComponents: []
  m_ParentPrefab: {fileID: 100100000, guid: a3dd1def731808043a561b0738461f06, type: 2}
  m_IsPrefabParent: 0
--- !u!224 &1262248575 stripped
RectTransform:
  m_PrefabParentObject: {fileID: 224358128945270740, guid: a3dd1def731808043a561b0738461f06,
    type: 2}
  m_PrefabInternal: {fileID: 1262248574}
--- !u!1 &1369435900
GameObject:
  m_ObjectHideFlags: 0
  m_PrefabParentObject: {fileID: 0}
  m_PrefabInternal: {fileID: 0}
  serializedVersion: 5
  m_Component:
  - component: {fileID: 1369435901}
  - component: {fileID: 1369435903}
  - component: {fileID: 1369435902}
  m_Layer: 5
  m_Name: Description
  m_TagString: Untagged
  m_Icon: {fileID: 0}
  m_NavMeshLayer: 0
  m_StaticEditorFlags: 0
  m_IsActive: 1
--- !u!224 &1369435901
RectTransform:
  m_ObjectHideFlags: 0
  m_PrefabParentObject: {fileID: 0}
  m_PrefabInternal: {fileID: 0}
  m_GameObject: {fileID: 1369435900}
  m_LocalRotation: {x: 0, y: 0, z: 0, w: 1}
  m_LocalPosition: {x: 0, y: 0, z: 0}
  m_LocalScale: {x: 1, y: 1, z: 1}
  m_Children: []
  m_Father: {fileID: 1772130836}
  m_RootOrder: 1
  m_LocalEulerAnglesHint: {x: 0, y: 0, z: 0}
  m_AnchorMin: {x: 0.5, y: 0.5}
  m_AnchorMax: {x: 0.5, y: 0.5}
  m_AnchoredPosition: {x: -67.25, y: -215}
  m_SizeDelta: {x: 636, y: 134}
  m_Pivot: {x: 0.5, y: 0.5}
--- !u!114 &1369435902
MonoBehaviour:
  m_ObjectHideFlags: 0
  m_PrefabParentObject: {fileID: 0}
  m_PrefabInternal: {fileID: 0}
  m_GameObject: {fileID: 1369435900}
  m_Enabled: 1
  m_EditorHideFlags: 0
  m_Script: {fileID: 708705254, guid: f70555f144d8491a825f0804e09c671c, type: 3}
  m_Name: 
  m_EditorClassIdentifier: 
  m_Material: {fileID: 0}
  m_Color: {r: 0.97794116, g: 0.97794116, b: 0.97794116, a: 1}
  m_RaycastTarget: 1
  m_OnCullStateChanged:
    m_PersistentCalls:
      m_Calls: []
    m_TypeName: UnityEngine.UI.MaskableGraphic+CullStateChangedEvent, UnityEngine.UI,
      Version=1.0.0.0, Culture=neutral, PublicKeyToken=null
  m_FontData:
    m_Font: {fileID: 12800000, guid: b51a3e520f9164da198dc59c8acfccd6, type: 3}
    m_FontSize: 15
    m_FontStyle: 0
    m_BestFit: 0
    m_MinSize: 1
    m_MaxSize: 40
    m_Alignment: 0
    m_AlignByGeometry: 0
    m_RichText: 1
    m_HorizontalOverflow: 0
    m_VerticalOverflow: 0
    m_LineSpacing: 1
  m_Text: 'Spawner will need to connect to Master before it can be registered.


    ''ConnectionToMaster'' object automatically connects to Master (at 127.0.0.1),
    but if master is running somewhere remotelly, you''ll need to pass master ip with
    "-msfMasterIp" argument, or change default address at `ConnectionToMaster` object'
--- !u!222 &1369435903
CanvasRenderer:
  m_ObjectHideFlags: 0
  m_PrefabParentObject: {fileID: 0}
  m_PrefabInternal: {fileID: 0}
  m_GameObject: {fileID: 1369435900}
--- !u!1 &1569889826
GameObject:
  m_ObjectHideFlags: 0
  m_PrefabParentObject: {fileID: 0}
  m_PrefabInternal: {fileID: 0}
  serializedVersion: 5
  m_Component:
  - component: {fileID: 1569889827}
  - component: {fileID: 1569889828}
  m_Layer: 0
  m_Name: DemoPlayerProfiles
  m_TagString: Untagged
  m_Icon: {fileID: 0}
  m_NavMeshLayer: 0
  m_StaticEditorFlags: 0
  m_IsActive: 1
--- !u!4 &1569889827
Transform:
  m_ObjectHideFlags: 0
  m_PrefabParentObject: {fileID: 0}
  m_PrefabInternal: {fileID: 0}
  m_GameObject: {fileID: 1569889826}
  m_LocalRotation: {x: 0, y: 0, z: 0, w: 1}
  m_LocalPosition: {x: 739.4531, y: 439.683, z: 0}
  m_LocalScale: {x: 1, y: 1, z: 1}
  m_Children: []
  m_Father: {fileID: 0}
  m_RootOrder: 7
  m_LocalEulerAnglesHint: {x: 0, y: 0, z: 0}
--- !u!114 &1569889828
MonoBehaviour:
  m_ObjectHideFlags: 0
  m_PrefabParentObject: {fileID: 0}
  m_PrefabInternal: {fileID: 0}
  m_GameObject: {fileID: 1569889826}
  m_Enabled: 1
  m_EditorHideFlags: 0
  m_Script: {fileID: 11500000, guid: 9140d85979287da408663d4b7e1a9440, type: 3}
  m_Name: 
  m_EditorClassIdentifier: 
--- !u!1 &1760863849
GameObject:
  m_ObjectHideFlags: 0
  m_PrefabParentObject: {fileID: 0}
  m_PrefabInternal: {fileID: 0}
  serializedVersion: 5
  m_Component:
  - component: {fileID: 1760863854}
  - component: {fileID: 1760863853}
  - component: {fileID: 1760863852}
  - component: {fileID: 1760863851}
  - component: {fileID: 1760863850}
  m_Layer: 0
  m_Name: Main Camera
  m_TagString: MainCamera
  m_Icon: {fileID: 0}
  m_NavMeshLayer: 0
  m_StaticEditorFlags: 0
  m_IsActive: 1
--- !u!81 &1760863850
AudioListener:
  m_ObjectHideFlags: 0
  m_PrefabParentObject: {fileID: 0}
  m_PrefabInternal: {fileID: 0}
  m_GameObject: {fileID: 1760863849}
  m_Enabled: 1
--- !u!124 &1760863851
Behaviour:
  m_ObjectHideFlags: 0
  m_PrefabParentObject: {fileID: 0}
  m_PrefabInternal: {fileID: 0}
  m_GameObject: {fileID: 1760863849}
  m_Enabled: 1
--- !u!92 &1760863852
Behaviour:
  m_ObjectHideFlags: 0
  m_PrefabParentObject: {fileID: 0}
  m_PrefabInternal: {fileID: 0}
  m_GameObject: {fileID: 1760863849}
  m_Enabled: 1
--- !u!20 &1760863853
Camera:
  m_ObjectHideFlags: 0
  m_PrefabParentObject: {fileID: 0}
  m_PrefabInternal: {fileID: 0}
  m_GameObject: {fileID: 1760863849}
  m_Enabled: 1
  serializedVersion: 2
  m_ClearFlags: 1
  m_BackGroundColor: {r: 0.19215687, g: 0.3019608, b: 0.4745098, a: 0}
  m_NormalizedViewPortRect:
    serializedVersion: 2
    x: 0
    y: 0
    width: 1
    height: 1
  near clip plane: 0.3
  far clip plane: 1000
  field of view: 60
  orthographic: 0
  orthographic size: 5
  m_Depth: -1
  m_CullingMask:
    serializedVersion: 2
    m_Bits: 4294967295
  m_RenderingPath: -1
  m_TargetTexture: {fileID: 0}
  m_TargetDisplay: 0
  m_TargetEye: 3
  m_HDR: 0
  m_AllowMSAA: 1
  m_ForceIntoRT: 0
  m_OcclusionCulling: 1
  m_StereoConvergence: 10
  m_StereoSeparation: 0.022
  m_StereoMirrorMode: 0
--- !u!4 &1760863854
Transform:
  m_ObjectHideFlags: 0
  m_PrefabParentObject: {fileID: 0}
  m_PrefabInternal: {fileID: 0}
  m_GameObject: {fileID: 1760863849}
  m_LocalRotation: {x: 0, y: 0, z: 0, w: 1}
  m_LocalPosition: {x: 0, y: 1, z: -10}
  m_LocalScale: {x: 1, y: 1, z: 1}
  m_Children: []
  m_Father: {fileID: 0}
  m_RootOrder: 0
  m_LocalEulerAnglesHint: {x: 0, y: 0, z: 0}
--- !u!1 &1772130832
GameObject:
  m_ObjectHideFlags: 0
  m_PrefabParentObject: {fileID: 0}
  m_PrefabInternal: {fileID: 0}
  serializedVersion: 5
  m_Component:
  - component: {fileID: 1772130836}
  - component: {fileID: 1772130835}
  - component: {fileID: 1772130834}
  - component: {fileID: 1772130833}
  - component: {fileID: 1772130837}
  m_Layer: 5
  m_Name: Canvas
  m_TagString: Untagged
  m_Icon: {fileID: 0}
  m_NavMeshLayer: 0
  m_StaticEditorFlags: 0
  m_IsActive: 1
--- !u!114 &1772130833
MonoBehaviour:
  m_ObjectHideFlags: 0
  m_PrefabParentObject: {fileID: 0}
  m_PrefabInternal: {fileID: 0}
  m_GameObject: {fileID: 1772130832}
  m_Enabled: 1
  m_EditorHideFlags: 0
  m_Script: {fileID: 1301386320, guid: f70555f144d8491a825f0804e09c671c, type: 3}
  m_Name: 
  m_EditorClassIdentifier: 
  m_IgnoreReversedGraphics: 1
  m_BlockingObjects: 0
  m_BlockingMask:
    serializedVersion: 2
    m_Bits: 4294967295
--- !u!114 &1772130834
MonoBehaviour:
  m_ObjectHideFlags: 0
  m_PrefabParentObject: {fileID: 0}
  m_PrefabInternal: {fileID: 0}
  m_GameObject: {fileID: 1772130832}
  m_Enabled: 1
  m_EditorHideFlags: 0
  m_Script: {fileID: 1980459831, guid: f70555f144d8491a825f0804e09c671c, type: 3}
  m_Name: 
  m_EditorClassIdentifier: 
  m_UiScaleMode: 0
  m_ReferencePixelsPerUnit: 100
  m_ScaleFactor: 1
  m_ReferenceResolution: {x: 800, y: 600}
  m_ScreenMatchMode: 0
  m_MatchWidthOrHeight: 0
  m_PhysicalUnit: 3
  m_FallbackScreenDPI: 96
  m_DefaultSpriteDPI: 96
  m_DynamicPixelsPerUnit: 1
--- !u!223 &1772130835
Canvas:
  m_ObjectHideFlags: 0
  m_PrefabParentObject: {fileID: 0}
  m_PrefabInternal: {fileID: 0}
  m_GameObject: {fileID: 1772130832}
  m_Enabled: 1
  serializedVersion: 3
  m_RenderMode: 0
  m_Camera: {fileID: 0}
  m_PlaneDistance: 100
  m_PixelPerfect: 0
  m_ReceivesEvents: 1
  m_OverrideSorting: 0
  m_OverridePixelPerfect: 0
  m_SortingBucketNormalizedSize: 0
  m_AdditionalShaderChannelsFlag: 25
  m_SortingLayerID: 0
  m_SortingOrder: 0
  m_TargetDisplay: 0
--- !u!224 &1772130836
RectTransform:
  m_ObjectHideFlags: 0
  m_PrefabParentObject: {fileID: 0}
  m_PrefabInternal: {fileID: 0}
  m_GameObject: {fileID: 1772130832}
  m_LocalRotation: {x: 0, y: 0, z: 0, w: 1}
  m_LocalPosition: {x: 0, y: 0, z: 0}
  m_LocalScale: {x: 0, y: 0, z: 0}
  m_Children:
  - {fileID: 98095113}
  - {fileID: 1369435901}
  - {fileID: 1262248575}
  - {fileID: 405832785}
  - {fileID: 732326004}
  - {fileID: 1146197961}
  m_Father: {fileID: 0}
  m_RootOrder: 2
  m_LocalEulerAnglesHint: {x: 0, y: 0, z: 0}
  m_AnchorMin: {x: 0, y: 0}
  m_AnchorMax: {x: 0, y: 0}
  m_AnchoredPosition: {x: 0, y: 0}
  m_SizeDelta: {x: 0, y: 0}
  m_Pivot: {x: 0, y: 0}
--- !u!114 &1772130837
MonoBehaviour:
  m_ObjectHideFlags: 0
  m_PrefabParentObject: {fileID: 0}
  m_PrefabInternal: {fileID: 0}
  m_GameObject: {fileID: 1772130832}
  m_Enabled: 1
  m_EditorHideFlags: 0
  m_Script: {fileID: 11500000, guid: 80343c7fb8d977948ac7727295e86edd, type: 3}
  m_Name: 
  m_EditorClassIdentifier: 
