%YAML 1.1
%TAG !u! tag:unity3d.com,2011:
--- !u!1045 &1
EditorBuildSettings:
  m_ObjectHideFlags: 0
  serializedVersion: 2
  m_Scenes:
  - enabled: 0
    path: Assets/SelectScene.unity
    guid: 44c9b47c207afeb4ba10f6ce1187ba5e
  - enabled: 0
    path: Assets/Demo-Master+Spawner.unity
    guid: d0d717a57b14b2647b7ef95eac21f603
  - enabled: 0
    path: Assets/Demo-Client.unity
    guid: 9a0317daf149ac745b747e20cdbb15a2
  - enabled: 0
    path: Assets/ClientVR.unity
    guid: b8c6642403b82a54dbd596e1be986ac7
  - enabled: 1
    path: Assets/roomOffice.unity
    guid: 7c7e1cec01c00ef4b9d578ae1a49c9d1
  - enabled: 1
    path: Assets/roomBath.unity
    guid: a6be2e8fe7160ca4bb1832214629e060
  - enabled: 1
    path: Assets/roomHall.unity
    guid: 2fe58d0b94b464947a3333bb65f4c2c3
